[
  {
    "description": "Added support for triggering pipelines in repos that belong to a team",
    "type": "minor"
  },
  {
    "description": "Add support for passing variables to a custom pipeline",
    "type": "minor"
  },
  {
    "description": "Variables names for REPO, ACCOUNT and APP_PASSWORD were changed",
    "type": "major"
  }
]